<?xml version="1.0" encoding="UTF-8"?>
<!DOCTYPE svg PUBLIC "-//W3C//DTD SVG 1.1//EN" "http://www.w3.org/Graphics/SVG/1.1/DTD/svg11.dtd">
<!-- Creator: CorelDRAW X6 -->
<svg xmlns="http://www.w3.org/2000/svg" xml:space="preserve" width="64px" height="64px" version="1.1" style="shape-rendering:geometricPrecision; text-rendering:geometricPrecision; image-rendering:optimizeQuality; fill-rule:evenodd; clip-rule:evenodd"
viewBox="0 0 64 64"
 xmlns:xlink="http://www.w3.org/1999/xlink">
 <defs>
  <style type="text/css">
   <![CDATA[
    .fill1 {fill:rgb(0, 0, 0)}
   ]]>
  </style>
 </defs>
 <g>
  <path class="fill1" d="M14 20l37 0c1,0 2,1 2,2l0 37c0,1 -1,2 -2,2l-37 0c-1,0 -2,-1 -2,-2l0 -37c0,-1 1,-2 2,-2zm18 4c4,0 6,3 6,6 0,3 -2,5 -4,6l5 20 -14 0 5 -20c-3,-1 -4,-3 -4,-6 0,-4 3,-6 6,-6zm0 -21c9,0 16,7 16,16l-6 0c0,-6 -5,-10 -10,-10 -6,0 -10,5 -10,10l-6 0c0,-9 7,-16 16,-16z"/>
 </g>
</svg>
